{  
   "photos":{  
      "page":1,
      "pages":9532,
      "perpage":25,
      "total":"238299",
      "photo":[  
         {  
            "id":"44691440404",
            "owner":"154637797@N06",
            "secret":"f70769a068",
            "server":"1933",
            "farm":2,
            "title":"Deal: Launch your project management career in style for only $19",
            "ispublic":1,
            "isfriend":0,
            "isfamily":0,
            "url_sq":"https://farm2.staticflickr.com/1933/44691440404_f70769a068_s.jpg",
            "height_sq":75,
            "width_sq":75
         },
         {  
            "id":"44691402354",
            "owner":"137722651@N08",
            "secret":"d51f648d5f",
            "server":"1944",
            "farm":2,
            "title":"Washington Post: Trump administration backtracks on curious HUD staffer move",
            "ispublic":1,
            "isfriend":0,
            "isfamily":0,
            "url_sq":"https://farm2.staticflickr.com/1944/44691402354_d51f648d5f_s.jpg",
            "height_sq":75,
            "width_sq":75,
            "url_l":"https://farm2.staticflickr.com/1944/44691402354_d51f648d5f_b.jpg",
            "height_l":"598",
            "width_l":"1009"
         },
         {  
            "id":"43598599490",
            "owner":"141205371@N07",
            "secret":"f6096ccf29",
            "server":"1917",
            "farm":2,
            "title":"¿Por qué se llama a París la Ciudad de la Luz?",
            "ispublic":1,
            "isfriend":0,
            "isfamily":0,
            "url_sq":"https://farm2.staticflickr.com/1917/43598599490_f6096ccf29_s.jpg",
            "height_sq":75,
            "width_sq":75
         },
         {  
            "id":"45363331562",
            "owner":"90826389@N03",
            "secret":"007fa7964f",
            "server":"1966",
            "farm":2,
            "title":"Curious",
            "ispublic":1,
            "isfriend":0,
            "isfamily":0,
            "url_sq":"https://farm2.staticflickr.com/1966/45363331562_007fa7964f_s.jpg",
            "height_sq":75,
            "width_sq":75,
            "url_l":"https://farm2.staticflickr.com/1966/45363331562_007fa7964f_b.jpg",
            "height_l":"837",
            "width_l":"1024"
         },
         {  
            "id":"31538392228",
            "owner":"141205371@N07",
            "secret":"8bf3f199d6",
            "server":"1961",
            "farm":2,
            "title":"This Artisan Makes The Movie Props That You Barely Notice Are There",
            "ispublic":1,
            "isfriend":0,
            "isfamily":0,
            "url_sq":"https://farm2.staticflickr.com/1961/31538392228_8bf3f199d6_s.jpg",
            "height_sq":75,
            "width_sq":75,
            "url_l":"https://farm2.staticflickr.com/1961/31538392228_8bf3f199d6_b.jpg",
            "height_l":"558",
            "width_l":"1024"
         },
         {  
            "id":"30473609177",
            "owner":"141205371@N07",
            "secret":"31f0d4ddc5",
            "server":"1951",
            "farm":2,
            "title":"These Food ‘Museums’ Want to Tease Your Palate and Dominate Your Instagram",
            "ispublic":1,
            "isfriend":0,
            "isfamily":0,
            "url_sq":"https://farm2.staticflickr.com/1951/30473609177_31f0d4ddc5_s.jpg",
            "height_sq":75,
            "width_sq":75
         },
         {  
            "id":"44499002285",
            "owner":"141205371@N07",
            "secret":"738833d743",
            "server":"1937",
            "farm":2,
            "title":"Sigh ... You can be a sexy Duchess Meghan for Halloween thanks to this costume https://t.co/IhoYAJ2W97 :) https://t.co/tnFNplFWgg",
            "ispublic":1,
            "isfriend":0,
            "isfamily":0,
            "url_sq":"https://farm2.staticflickr.com/1937/44499002285_738833d743_s.jpg",
            "height_sq":75,
            "width_sq":75,
            "url_l":"https://farm2.staticflickr.com/1937/44499002285_738833d743_b.jpg",
            "height_l":"400",
            "width_l":"960"
         },
         {  
            "id":"44689412104",
            "owner":"164344344@N07",
            "secret":"24d30e7815",
            "server":"1968",
            "farm":2,
            "title":"Introducing The Keto Reset Diet Cookbook (Plus, an MDA Pre-Order Bonus Deal)",
            "ispublic":1,
            "isfriend":0,
            "isfamily":0,
            "url_sq":"https://farm2.staticflickr.com/1968/44689412104_24d30e7815_s.jpg",
            "height_sq":75,
            "width_sq":75
         },
         {  
            "id":"31537885908",
            "owner":"37911116@N04",
            "secret":"1830093a67",
            "server":"1940",
            "farm":2,
            "title":"IMG_0331",
            "ispublic":1,
            "isfriend":0,
            "isfamily":0,
            "url_sq":"https://farm2.staticflickr.com/1940/31537885908_1830093a67_s.jpg",
            "height_sq":75,
            "width_sq":75,
            "url_l":"https://farm2.staticflickr.com/1940/31537885908_1830093a67_b.jpg",
            "height_l":"768",
            "width_l":"1024"
         },
         {  
            "id":"31537752208",
            "owner":"37911116@N04",
            "secret":"b57b74ef96",
            "server":"1944",
            "farm":2,
            "title":"IMG_0332",
            "ispublic":1,
            "isfriend":0,
            "isfamily":0,
            "url_sq":"https://farm2.staticflickr.com/1944/31537752208_b57b74ef96_s.jpg",
            "height_sq":75,
            "width_sq":75,
            "url_l":"https://farm2.staticflickr.com/1944/31537752208_b57b74ef96_b.jpg",
            "height_l":"768",
            "width_l":"1024"
         },
         {  
            "id":"43596024840",
            "owner":"162434647@N06",
            "secret":"aba8c41f31",
            "server":"1977",
            "farm":2,
            "title":"1539796493.788199",
            "ispublic":1,
            "isfriend":0,
            "isfamily":0,
            "url_sq":"https://farm2.staticflickr.com/1977/43596024840_aba8c41f31_s.jpg",
            "height_sq":75,
            "width_sq":75,
            "url_l":"https://farm2.staticflickr.com/1977/43596024840_aba8c41f31_b.jpg",
            "height_l":"698",
            "width_l":"1024"
         },
         {  
            "id":"44687680814",
            "owner":"162434647@N06",
            "secret":"b22f4b61a7",
            "server":"1905",
            "farm":2,
            "title":"1539797943.263608",
            "ispublic":1,
            "isfriend":0,
            "isfamily":0,
            "url_sq":"https://farm2.staticflickr.com/1905/44687680814_b22f4b61a7_s.jpg",
            "height_sq":75,
            "width_sq":75,
            "url_l":"https://farm2.staticflickr.com/1905/44687680814_b22f4b61a7_b.jpg",
            "height_l":"1024",
            "width_l":"703"
         },
         {  
            "id":"44496450085",
            "owner":"59634600@N06",
            "secret":"2aec28707a",
            "server":"1918",
            "farm":2,
            "title":"John with curious instruement.",
            "ispublic":1,
            "isfriend":0,
            "isfamily":0,
            "url_sq":"https://farm2.staticflickr.com/1918/44496450085_2aec28707a_s.jpg",
            "height_sq":75,
            "width_sq":75,
            "url_l":"https://farm2.staticflickr.com/1918/44496450085_2aec28707a_b.jpg",
            "height_l":"1024",
            "width_l":"768"
         },
         {  
            "id":"44685989174",
            "owner":"162434647@N06",
            "secret":"a824817ca4",
            "server":"1913",
            "farm":2,
            "title":"1539797543.465485",
            "ispublic":1,
            "isfriend":0,
            "isfamily":0,
            "url_sq":"https://farm2.staticflickr.com/1913/44685989174_a824817ca4_s.jpg",
            "height_sq":75,
            "width_sq":75,
            "url_l":"https://farm2.staticflickr.com/1913/44685989174_a824817ca4_b.jpg",
            "height_l":"769",
            "width_l":"1024"
         },
         {  
            "id":"44684796374",
            "owner":"129031476@N03",
            "secret":"b9b6c34104",
            "server":"1908",
            "farm":2,
            "title":"National Museum of Civil War Medicine: Five for Freedom",
            "ispublic":1,
            "isfriend":0,
            "isfamily":0,
            "url_sq":"https://farm2.staticflickr.com/1908/44684796374_b9b6c34104_s.jpg",
            "height_sq":75,
            "width_sq":75,
            "url_l":"https://farm2.staticflickr.com/1908/44684796374_b9b6c34104_b.jpg",
            "height_l":"768",
            "width_l":"1024"
         },
         {  
            "id":"44684796244",
            "owner":"129031476@N03",
            "secret":"9955020cce",
            "server":"1910",
            "farm":2,
            "title":"National Museum of Civil War Medicine: Five for Freedom",
            "ispublic":1,
            "isfriend":0,
            "isfamily":0,
            "url_sq":"https://farm2.staticflickr.com/1910/44684796244_9955020cce_s.jpg",
            "height_sq":75,
            "width_sq":75,
            "url_l":"https://farm2.staticflickr.com/1910/44684796244_9955020cce_b.jpg",
            "height_l":"1024",
            "width_l":"768"
         },
         {  
            "id":"44684796074",
            "owner":"129031476@N03",
            "secret":"04240fca5a",
            "server":"1919",
            "farm":2,
            "title":"National Museum of Civil War Medicine: Five for Freedom",
            "ispublic":1,
            "isfriend":0,
            "isfamily":0,
            "url_sq":"https://farm2.staticflickr.com/1919/44684796074_04240fca5a_s.jpg",
            "height_sq":75,
            "width_sq":75,
            "url_l":"https://farm2.staticflickr.com/1919/44684796074_04240fca5a_b.jpg",
            "height_l":"1024",
            "width_l":"768"
         },
         {  
            "id":"45409704191",
            "owner":"141205371@N07",
            "secret":"4d409388f7",
            "server":"1904",
            "farm":2,
            "title":"Baltimore police union to 'Saturday Night Live': Don't kick us while we're down",
            "ispublic":1,
            "isfriend":0,
            "isfamily":0,
            "url_sq":"https://farm2.staticflickr.com/1904/45409704191_4d409388f7_s.jpg",
            "height_sq":75,
            "width_sq":75,
            "url_l":"https://farm2.staticflickr.com/1904/45409704191_4d409388f7_b.jpg",
            "height_l":"683",
            "width_l":"1024"
         },
         {  
            "id":"31534136298",
            "owner":"138417587@N07",
            "secret":"09b23d2931",
            "server":"1952",
            "farm":2,
            "title":"Nước hoa Britney Spears Curious 50ml Eau De Parfum",
            "ispublic":1,
            "isfriend":0,
            "isfamily":0,
            "url_sq":"https://farm2.staticflickr.com/1952/31534136298_09b23d2931_s.jpg",
            "height_sq":75,
            "width_sq":75,
            "url_l":"https://farm2.staticflickr.com/1952/31534136298_09b23d2931_b.jpg",
            "height_l":"768",
            "width_l":"1024"
         },
         {  
            "id":"44493951305",
            "owner":"57955584@N03",
            "secret":"5cf5c58df5",
            "server":"1919",
            "farm":2,
            "title":"_DSC0510_ex_cp",
            "ispublic":1,
            "isfriend":0,
            "isfamily":0,
            "url_sq":"https://farm2.staticflickr.com/1919/44493951305_5cf5c58df5_s.jpg",
            "height_sq":75,
            "width_sq":75,
            "url_l":"https://farm2.staticflickr.com/1919/44493951305_5cf5c58df5_b.jpg",
            "height_l":"684",
            "width_l":"1024"
         },
         {  
            "id":"44683857684",
            "owner":"162434647@N06",
            "secret":"e3f551a691",
            "server":"1970",
            "farm":2,
            "title":"DSC_4922",
            "ispublic":1,
            "isfriend":0,
            "isfamily":0,
            "url_sq":"https://farm2.staticflickr.com/1970/44683857684_e3f551a691_s.jpg",
            "height_sq":75,
            "width_sq":75,
            "url_l":"https://farm2.staticflickr.com/1970/44683857684_e3f551a691_b.jpg",
            "height_l":"1024",
            "width_l":"972"
         },
         {  
            "id":"31532394698",
            "owner":"146837842@N06",
            "secret":"97a6a18201",
            "server":"1904",
            "farm":2,
            "title":"Elysion",
            "ispublic":1,
            "isfriend":0,
            "isfamily":0,
            "url_sq":"https://farm2.staticflickr.com/1904/31532394698_97a6a18201_s.jpg",
            "height_sq":75,
            "width_sq":75,
            "url_l":"https://farm2.staticflickr.com/1904/31532394698_97a6a18201_b.jpg",
            "height_l":"768",
            "width_l":"1024"
         }
      ]
   },
   "stat":"ok"
}